{"code":200,"meta":
    {"pagination":{"total":1636,"pages":82,"page":1,"limit":20}},
    "data":[{"id":1661,"name":"Any Name","email":"fakename2@email.com","gender":"male","status":"active"},
           {"id":1666,"name":"Dr. Barry Mosciski","email":"Geovany.Hudson28@example.net","gender":"female","status":"active"},
           {"id":1683,"name":"Everlasting Bother 1633430743339","email":"everlastingbother1633430743339@mail.com","gender":"male","status":"active"},
           {"id":1684,"name":"Plaintive Heavy 1633430759972","email":"plaintiveheavy1633430759972@mail.com","gender":"male","status":"active"},
           {"id":35,"name":"Raj Ganaka","email":"raj_ganaka@jast.name","gender":"male","status":"active"},
           {"id":36,"name":"Agasti Ahluwalia","email":"agasti_ahluwalia@hickle-wilkinson.com","gender":"female","status":"active"},
           {"id":37,"name":"Lakshmi Sinha","email":"lakshmi_sinha@hills.co","gender":"male","status":"active"},
           {"id":39,"name":"Sarla Somayaji","email":"somayaji_sarla@sipes.biz","gender":"female","status":"active"},
           {"id":40,"name":"Mr. Anila Tagore","email":"mr_anila_tagore@runolfsdottir.net","gender":"male","status":"active"},
           {"id":41,"name":"Mrs. Brijesh Jain","email":"mrs_jain_brijesh@herzog-green.org","gender":"male","status":"active"},
           {"id":42,"name":"Parvati Agarwal","email":"parvati_agarwal@kuhlman.io","gender":"female","status":"inactive"},
           {"id":1685,"name":"Abel Reichert","email":"Marvin_Schroeder37@example.com","gender":"female","status":"active"},
           {"id":44,"name":"Dhanalakshmi Somayaji III","email":"somayaji_dhanalakshmi_iii@oberbrunner.com","gender":"male","status":"active"},
           {"id":45,"name":"Rev. Girik Mukhopadhyay","email":"mukhopadhyay_girik_rev@hammes.info","gender":"male","status":"inactive"},
           {"id":46,"name":"Vasudha Deshpande","email":"deshpande_vasudha@luettgen.biz","gender":"female","status":"inactive"},
           {"id":47,"name":"Achintya Nehru","email":"achintya_nehru@macgyver.io","gender":"male","status":"inactive"},
           {"id":48,"name":"Devesh Malik","email":"devesh_malik@considine.name","gender":"male","status":"active"},
           {"id":49,"name":"Dayaananda Deshpande I","email":"i_deshpande_dayaananda@bergnaum-kutch.io","gender":"male","status":"active"},
           {"id":50,"name":"Vaijayanthi Bhattathiri","email":"vaijayanthi_bhattathiri@johnson.com","gender":"female","status":"inactive"},
           {"id":51,"name":"Sanya Mukhopadhyay","email":"mukhopadhyay_sanya@howell-cassin.org","gender":"female","status":"inactive"}]}