{
    "code": 200,
    "meta": {
      "pagination": {
        "total": 2127,
        "pages": 107,
        "page": 1,
        "limit": 20
      }
    },
    "data": [
      {
        "id": 2579,
        "name": "API Monitoring:0fv5m",
        "email": "apimonitoring0fv5m@synthetic.com",
        "gender": "male",
        "status": "active"
      },
      {
        "id": 2577,
        "name": "Morkovka",
        "email": "Teplicda11@example.com",
        "gender": "male",
        "status": "active"
      },
      {
        "id": 2582,
        "name": "Lila Bandopadhyay",
        "email": "Ryder_Ward@hotmail.com",
        "gender": "male",
        "status": "active"
      },
      {
        "id": 2583,
        "name": "Lila Bandopadhyay",
        "email": "Vella.Stiedemann36@yahoo.com",
        "gender": "male",
        "status": "active"
      },
      {
        "id": 2584,
        "name": "Lila Bandopadhyay",
        "email": "Corrine_Hahn@yahoo.com",
        "gender": "male",
        "status": "active"
      },
      {
        "id": 2585,
        "name": "Lila Bandopadhyay",
        "email": "Alyson_White@gmail.com",
        "gender": "male",
        "status": "active"
      },
      {
        "id": 2586,
        "name": "Lila Bandopadhyay",
        "email": "Dawson_Daugherty@hotmail.com",
        "gender": "male",
        "status": "active"
      },
      {
        "id": 2587,
        "name": "Lila Bandopadhyay",
        "email": "Jeffery.Beier69@yahoo.com",
        "gender": "male",
        "status": "active"
      },
      {
        "id": 2601,
        "name": "Lila Bandopadhyay",
        "email": "Junius1@gmail.com",
        "gender": "male",
        "status": "active"
      },
      {
        "id": 2602,
        "name": "Lila Bandopadhyay",
        "email": "Rasheed_Flatley57@yahoo.com",
        "gender": "male",
        "status": "active"
      },
      {
        "id": 2603,
        "name": "GuilhermeCS1",
        "email": "guilherme.CS1@gmail.com",
        "gender": "male",
        "status": "active"
      },
      {
        "id": 2604,
        "name": "GuilhermeCS2",
        "email": "guilherme.CS2@gmail.com",
        "gender": "male",
        "status": "active"
      },
      {
        "id": 2605,
        "name": "GuilhermeCS3",
        "email": "guilherme.CS3@gmail.com",
        "gender": "male",
        "status": "active"
      },
      {
        "id": 2606,
        "name": "GuilhermeCS4",
        "email": "guilherme.CS4@gmail.com",
        "gender": "male",
        "status": "active"
      },
      {
        "id": 2607,
        "name": "GuilhermeCS5",
        "email": "guilherme.CS5@gmail.com",
        "gender": "male",
        "status": "active"
      },
      {
        "id": 2610,
        "name": "API Monitoring:dc02ll",
        "email": "apimonitoringdc02ll@synthetic.com",
        "gender": "male",
        "status": "active"
      },
      {
        "id": 2612,
        "name": "Anirban Saha",
        "email": "sonai@gmail.com",
        "gender": "male",
        "status": "active"
      },
      {
        "id": 2623,
        "name": "Andrea Perez",
        "email": "andrea103@mycompany.com",
        "gender": "female",
        "status": "active"
      },
      {
        "id": 2643,
        "name": "API Monitoring:k8nfwc",
        "email": "apimonitoringk8nfwc@synthetic.com",
        "gender": "male",
        "status": "active"
      },
      {
        "id": 2505,
        "name": "API Monitoring:xo3c9c",
        "email": "apimonitoringxo3c9c@synthetic.com",
        "gender": "male",
        "status": "inactive"
      }
    ]
  }